Clase 05 - Guía técnicas avanzadas para realizar EDA.
…
##                
##                  0  5 12 24 36 48 76 106
##   No-vaccinated 17 17 17 17 17 17 17  17
##   Vaccinated    62 62 62 62 62 62 62  62

b) Filtrar datos por un criterio de clasificación

Del conjunto de datos tidy_vacunas seleccione solo la información del grupo Vaccinated. Para ello combine una tubería %>% con la función filter(), dentro de filter use el argumento Group == Vaccinated.

## # A tibble: 496 × 4
##    Tag   Group       Week `IFN response`
##    <fct> <fct>      <dbl>          <dbl>
##  1 1026  Vaccinated     0           17.4
##  2 1027  Vaccinated     0          160. 
##  3 1028  Vaccinated     0           93.1
##  4 1029  Vaccinated     0          688. 
##  5 1034  Vaccinated     0          206. 
##  6 1035  Vaccinated     0           58.3
##  7 1036  Vaccinated     0           25.6
##  8 1037  Vaccinated     0           63.0
##  9 1038  Vaccinated     0           33.0
## 10 1039  Vaccinated     0          118. 
## # … with 486 more rows

c) Filtrar datos por dos criterios de clasificación

Del set de datos tidy_vacunas seleccione solo los datos del Grupo Vaccinated y de la semana week 24 simultaneamente. Para ello combine una tubería %>% con la función filter(). Dentro de filter use el argumento Group == “Vaccinated” y Week == “24”.

## # A tibble: 62 × 4
##    Tag   Group       Week `IFN response`
##    <fct> <fct>      <dbl>          <dbl>
##  1 1026  Vaccinated    24           235.
##  2 1027  Vaccinated    24           237.
##  3 1028  Vaccinated    24          1088.
##  4 1029  Vaccinated    24           343.
##  5 1034  Vaccinated    24           365.
##  6 1035  Vaccinated    24           154.
##  7 1036  Vaccinated    24           117.
##  8 1037  Vaccinated    24           681.
##  9 1038  Vaccinated    24           250.
## 10 1039  Vaccinated    24           578.
## # … with 52 more rows
…
